Mini-Project 01
…
The most popular game in every country is soccer. USA and Brazil have nearly equal amounts of Olympic players but the first place was occupied by Brazil.

What is the ratio of female to male Olympic attendees?
Sport is one of the most powerful platforms for promoting gender equality, let’s see Males and Females participated in Olympics according to their Age.

library(dplyr)
options(warn=-1)

share_f <- df %>% dplyr::group_by(Year, Gender) %>% dplyr::summarise(count = n()) %>% mutate(freq = count / sum(count)) %>%
filter(Gender == "Female")
## `summarise()` has grouped output by 'Year'. You can override using the
## `.groups` argument.
share_f
## # A tibble: 35 × 4
## # Groups:   Year [35]
##     Year Gender count      freq
##            
##  1  1900 Female    33 0.000120 
##  2  1904 Female    16 0.0000580
##  3  1906 Female    11 0.0000399
##  4  1908 Female    47 0.000171 
##  5  1912 Female    87 0.000316 
##  6  1920 Female   134 0.000486 
##  7  1924 Female   261 0.000947 
##  8  1928 Female   437 0.00159  
##  9  1932 Female   369 0.00134  
## 10  1936 Female   549 0.00199  
## # … with 25 more rows
share_M <- df %>% dplyr::group_by(Year, Gender) %>% dplyr::summarise(count = n()) %>% mutate(freq = count / sum(count)) %>%
filter(Gender == "Male")
## `summarise()` has grouped output by 'Year'. You can override using the
## `.groups` argument.
share_M
## # A tibble: 36 × 4
## # Groups:   Year [36]
##     Year Gender count    freq
##          
##  1  1896 Male     380 0.00138
##  2  1900 Male    1903 0.00690
##  3  1904 Male    1285 0.00466
##  4  1906 Male    1722 0.00625
##  5  1908 Male    3054 0.0111 
##  6  1912 Male    3953 0.0143 
##  7  1920 Male    4158 0.0151 
##  8  1924 Male    5432 0.0197 
##  9  1928 Male    5137 0.0186 
## 10  1932 Male    2952 0.0107 
## # … with 26 more rows
…
